{"skeleton":{"images":""},
"bones":[{"name":"root"}],
"slots":[
	{"name":"배경","bone":"root","attachment":"배경"},
	{"name":"ice_wall_a","bone":"root","attachment":"ice_wall_a"},
	{"name":"ice_wall_b","bone":"root","attachment":"ice_wall_b"},
	{"name":"ice_wall_c","bone":"root","attachment":"ice_wall_c"},
	{"name":"forest_wall_a","bone":"root","attachment":"forest_wall_a"},
	{"name":"forest_wall_b","bone":"root","attachment":"forest_wall_b"},
	{"name":"forest_wall_c","bone":"root","attachment":"forest_wall_c"}
],
"skins":{
	"default":{
		"forest_wall_c":{"forest_wall_c":{"x":41.5,"y":77.5,"width":83,"height":155}},
		"forest_wall_b":{"forest_wall_b":{"x":41.5,"y":77.5,"width":83,"height":155}},
		"forest_wall_a":{"forest_wall_a":{"x":41.5,"y":77.5,"width":83,"height":155}},
		"ice_wall_c":{"ice_wall_c":{"x":41.5,"y":77.5,"width":83,"height":155}},
		"ice_wall_b":{"ice_wall_b":{"x":41.5,"y":77.5,"width":83,"height":155}},
		"ice_wall_a":{"ice_wall_a":{"x":41.5,"y":77.5,"width":83,"height":155}},
		"배경":{"배경":{"x":41.5,"y":77.5,"width":83,"height":155}}
	}
},
"animations":{"animation":{}}
}