%YAML 1.1
%TAG !u! tag:unity3d.com,2011:
--- !u!114 &11400000
MonoBehaviour:
  m_ObjectHideFlags: 0
  m_CorrespondingSourceObject: {fileID: 0}
  m_PrefabInstance: {fileID: 0}
  m_PrefabAsset: {fileID: 0}
  m_GameObject: {fileID: 0}
  m_Enabled: 1
  m_EditorHideFlags: 0
  m_Script: {fileID: 11500000, guid: a6b194f808b1af6499c93410e504af42, type: 3}
  m_Name: staffroll_Atlas
  m_EditorClassIdentifier: 
  atlasFile: {fileID: 4900000, guid: 6bc57b6a5a3be9b41a17a4bb0e16f1f1, type: 3}
  materials:
  - {fileID: 2100000, guid: 593f1e6797a1a424f9287b048733af2d, type: 2}
  - {fileID: 2100000, guid: 1eb937c53d71c3c43b079457d14834a1, type: 2}
  - {fileID: 2100000, guid: c4322968fbac5c046a2553ad8955625a, type: 2}
