%YAML 1.1
%TAG !u! tag:unity3d.com,2011:
--- !u!221 &22100000
AnimatorOverrideController:
  m_ObjectHideFlags: 0
  m_CorrespondingSourceObject: {fileID: 0}
  m_PrefabInstance: {fileID: 0}
  m_PrefabAsset: {fileID: 0}
  m_Name: Mimic
  m_Controller: {fileID: 9100000, guid: 9b406008b3a8ac44e86a44cb832e7708, type: 2}
  m_Clips:
  - m_OriginalClip: {fileID: -7746018329636831933, guid: 9b406008b3a8ac44e86a44cb832e7708,
      type: 2}
    m_OverrideClip: {fileID: 7736395671659269864, guid: 9a388e4c513902c4393587675c74a563,
      type: 2}
  - m_OriginalClip: {fileID: -3957402430401038467, guid: 9b406008b3a8ac44e86a44cb832e7708,
      type: 2}
    m_OverrideClip: {fileID: 3398027582574533880, guid: 9a388e4c513902c4393587675c74a563,
      type: 2}
  - m_OriginalClip: {fileID: 1513867133703190680, guid: 9b406008b3a8ac44e86a44cb832e7708,
      type: 2}
    m_OverrideClip: {fileID: -7044516329087677123, guid: 9a388e4c513902c4393587675c74a563,
      type: 2}
