%YAML 1.1
%TAG !u! tag:unity3d.com,2011:
--- !u!114 &11400000
MonoBehaviour:
  m_ObjectHideFlags: 0
  m_CorrespondingSourceObject: {fileID: 0}
  m_PrefabInstance: {fileID: 0}
  m_PrefabAsset: {fileID: 0}
  m_GameObject: {fileID: 0}
  m_Enabled: 1
  m_EditorHideFlags: 0
  m_Script: {fileID: 11500000, guid: af65ee6b0f35f974dba93979a07edbce, type: 3}
  m_Name: Text_Tut1
  m_EditorClassIdentifier: 
  m_LocaleItems:
  - m_Language: 10
    m_Value: The monsters are trying to cook and eat the dragon's eggs!
  - m_Language: 23
    m_Value: "\uBAAC\uC2A4\uD130\uB4E4\uC774\n\uB4DC\uB798\uACE4\uC758 \uC54C\uC744
      \uC694\uB9AC\uD574 \uBA39\uC73C\uB824\uACE0 \uD574\uC694!"
