{"skeleton":{"images":""},
"bones":[{"name":"root"}],
"slots":[
	{"name":"trap_ice","bone":"root","attachment":"trap_ice"},
	{"name":"trap_fire","bone":"root","attachment":"trap_fire"},
	{"name":"trap_slow","bone":"root","attachment":"trap_slow"}
],
"skins":{
	"default":{
		"trap_slow":{"trap_slow":{"x":42,"y":47.5,"width":84,"height":83}},
		"trap_fire":{"trap_fire":{"x":42,"y":47.5,"width":84,"height":83}},
		"trap_ice":{"trap_ice":{"x":42,"y":47,"width":84,"height":94}}
	}
},
"animations":{"animation":{}}
}