%YAML 1.1
%TAG !u! tag:unity3d.com,2011:
--- !u!114 &11400000
MonoBehaviour:
  m_ObjectHideFlags: 0
  m_CorrespondingSourceObject: {fileID: 0}
  m_PrefabInstance: {fileID: 0}
  m_PrefabAsset: {fileID: 0}
  m_GameObject: {fileID: 0}
  m_Enabled: 1
  m_EditorHideFlags: 0
  m_Script: {fileID: 11500000, guid: a6b194f808b1af6499c93410e504af42, type: 3}
  m_Name: gollem_Atlas
  m_EditorClassIdentifier: 
  atlasFile: {fileID: 4900000, guid: c6f20608e86699d42a0aa0d2f312fa8f, type: 3}
  materials:
  - {fileID: 2100000, guid: 23b648592ff96054dbc50b932eeb572f, type: 2}
