{
"skeleton": { "hash": "OVnPP81MygGyWaEA6E5y1GoVXuA", "spine": "3.6.53", "width": 794.47, "height": 807.32, "images": "./meteo_ready/" },
"bones": [
	{ "name": "root" },
	{ "name": "area", "parent": "root", "length": 26.42, "rotation": 88.49, "x": 10.62, "y": 0.61 },
	{ "name": "background", "parent": "root", "length": 46.92, "rotation": 90 },
	{ "name": "background_red_a", "parent": "background", "length": 44.88 },
	{ "name": "background_a", "parent": "background_red_a", "length": 51.24, "x": 345.5, "y": 0.18 },
	{ "name": "background_a3", "parent": "background_red_a", "length": 51.24, "x": 111.05, "y": 331.02 },
	{ "name": "background_a4", "parent": "background_red_a", "length": 51.24, "x": 111.78, "y": -328.01 },
	{ "name": "background_a5", "parent": "background_red_a", "length": 51.24, "x": -280.83, "y": 206.3 },
	{ "name": "background_a6", "parent": "background_red_a", "length": 51.24, "x": -280.83, "y": -204.76 },
	{ "name": "background_red_area", "parent": "root", "length": 30.1, "rotation": -87.88 },
	{ "name": "background_red_b", "parent": "background", "length": 44.42 },
	{ "name": "bone", "parent": "root", "length": 20.83, "rotation": 90 }
],
"slots": [
	{ "name": "area", "bone": "area", "attachment": "area" },
	{ "name": "background_red_area", "bone": "background_red_area", "attachment": "background_red_area" },
	{ "name": "background_min_area", "bone": "bone", "attachment": "background_min_area" },
	{ "name": "background_max_area", "bone": "bone", "attachment": "background_max_area" },
	{ "name": "meteo_ready_c", "bone": "background_red_b", "color": "ffffff7d", "attachment": "skin", "blend": "additive" },
	{ "name": "meteo_ready_a", "bone": "background_red_a", "color": "ff5555ae", "attachment": "skin", "blend": "additive" },
	{ "name": "meteo_ready_e", "bone": "background_a", "color": "ffffff7e", "attachment": "skin", "blend": "additive" },
	{ "name": "meteo_ready_e3", "bone": "background_a3", "color": "ffffff7e", "attachment": "skin", "blend": "additive" },
	{ "name": "meteo_ready_e5", "bone": "background_a5", "color": "ffffff7e", "attachment": "skin", "blend": "additive" },
	{ "name": "meteo_ready_e6", "bone": "background_a6", "color": "ffffff7e", "attachment": "skin", "blend": "additive" },
	{ "name": "meteo_ready_e4", "bone": "background_a4", "color": "ffffff7e", "attachment": "skin", "blend": "additive" }
],
"skins": {
	"default": {
		"area": {
			"area": {
				"type": "boundingbox",
				"vertexCount": 4,
				"vertices": [ 60.37, 75.2, -65.77, 72.65, -63.98, -54.28, 64.48, -51.67 ]
			}
		},
		"background_max_area": {
			"background_max_area": {
				"type": "boundingbox",
				"vertexCount": 4,
				"vertices": [ 373.02, 373.06, -370.45, 370.76, -375.59, -373.87, 375, -373.59 ]
			}
		},
		"background_min_area": {
			"background_min_area": {
				"type": "boundingbox",
				"vertexCount": 4,
				"vertices": [ 62.95, 63.3, -66.63, 63.3, -65.71, -65.36, 61.12, -65.36 ]
			}
		},
		"background_red_area": {
			"background_red_area": {
				"type": "boundingbox",
				"vertexCount": 4,
				"vertices": [ -409.3, -379.9, -379.71, 406.84, 411.85, 377.62, 374.38, -406.51 ]
			}
		}
	},
	"second": {
		"meteo_ready_a": {
			"skin": { "name": "meteo_ready_d", "scaleX": 3.15, "scaleY": 3.15, "rotation": -90, "width": 250, "height": 250 }
		},
		"meteo_ready_c": {
			"skin": { "name": "meteo_ready_b", "scaleX": 3.15, "scaleY": 3.15, "width": 250, "height": 250 }
		},
		"meteo_ready_e": {
			"skin": { "name": "meteo_ready_f", "x": -0.09, "scaleX": 3.15, "scaleY": 3.15, "rotation": 28, "width": 32, "height": 32 }
		},
		"meteo_ready_e3": {
			"skin": { "name": "meteo_ready_f", "x": -0.09, "scaleX": 3.15, "scaleY": 3.15, "rotation": -20.32, "width": 32, "height": 32 }
		},
		"meteo_ready_e4": {
			"skin": { "name": "meteo_ready_f", "x": -0.09, "scaleX": 3.15, "scaleY": 3.15, "rotation": -37.55, "width": 32, "height": 32 }
		},
		"meteo_ready_e5": {
			"skin": { "name": "meteo_ready_f", "x": -0.09, "scaleX": 3.15, "scaleY": 3.15, "rotation": 53.7, "width": 32, "height": 32 }
		},
		"meteo_ready_e6": {
			"skin": { "name": "meteo_ready_f", "x": -0.09, "scaleX": 3.15, "scaleY": 3.15, "rotation": 127.6, "width": 32, "height": 32 }
		}
	}
},
"events": {
	"sound_breath_charge": {}
},
"animations": {
	"idle": {
		"slots": {
			"meteo_ready_a": {
				"color": [
					{ "time": 0, "color": "ff555500" }
				]
			},
			"meteo_ready_c": {
				"color": [
					{ "time": 0, "color": "ffffff00" }
				]
			},
			"meteo_ready_e": {
				"color": [
					{ "time": 0, "color": "ffffff00" }
				]
			},
			"meteo_ready_e3": {
				"color": [
					{ "time": 0, "color": "ffffff00" }
				]
			},
			"meteo_ready_e4": {
				"color": [
					{ "time": 0, "color": "ffffff00" }
				]
			},
			"meteo_ready_e5": {
				"color": [
					{ "time": 0, "color": "ffffff00" }
				]
			},
			"meteo_ready_e6": {
				"color": [
					{ "time": 0, "color": "ffffff00" }
				]
			}
		}
	},
	"meteo_ready": {
		"slots": {
			"meteo_ready_c": {
				"color": [
					{ "time": 0, "color": "ffffff00" },
					{ "time": 0.4, "color": "ffffff5d" },
					{ "time": 0.5667, "color": "ffffff00" },
					{ "time": 1.2667, "color": "ffffff76" },
					{ "time": 1.4, "color": "ffffff00" },
					{ "time": 2.3333, "color": "fffffffe" },
					{ "time": 2.5, "color": "ffffff7e" }
				]
			}
		},
		"bones": {
			"background_red_a": {
				"rotate": [
					{ "time": 0, "angle": 0 }
				],
				"translate": [
					{ "time": 0, "x": 0, "y": 0, "curve": "stepped" },
					{ "time": 2.5, "x": 0, "y": 0 }
				],
				"scale": [
					{ "time": 0, "x": 0, "y": 0 },
					{ "time": 2.5, "x": 1, "y": 1 }
				]
			},
			"background_red_area": {
				"rotate": [
					{ "time": 0, "angle": 0 }
				],
				"translate": [
					{ "time": 0, "x": 0, "y": 0, "curve": "stepped" },
					{ "time": 2.5, "x": 0, "y": 0 }
				],
				"scale": [
					{ "time": 0, "x": 0, "y": 0 },
					{ "time": 2.5, "x": 1, "y": 1 }
				],
				"shear": [
					{ "time": 2.5, "x": 0, "y": 0 }
				]
			},
			"background_red_b": {
				"rotate": [
					{ "time": 0, "angle": 0 }
				],
				"translate": [
					{ "time": 0, "x": 0, "y": 0 }
				],
				"scale": [
					{ "time": 0, "x": 0, "y": 0 },
					{ "time": 0.5333, "x": 0.4, "y": 0.4 },
					{ "time": 0.6333, "x": 0, "y": 0 },
					{ "time": 1.3667, "x": 0.85, "y": 0.85 },
					{ "time": 1.4, "x": 0, "y": 0 },
					{ "time": 2.4333, "x": 1, "y": 1 }
				]
			},
			"background_a": {
				"rotate": [
					{ "time": 0, "angle": 0 },
					{ "time": 0.2667, "angle": -177.55 },
					{ "time": 0.8333, "angle": 6.3 },
					{ "time": 0.8667, "angle": 0 },
					{ "time": 1.6667, "angle": -177.55 },
					{ "time": 2.4667, "angle": 6 },
					{ "time": 2.5, "angle": 0 }
				]
			},
			"background_a3": {
				"rotate": [
					{ "time": 0, "angle": 0 },
					{ "time": 0.2667, "angle": -177.55 },
					{ "time": 0.8333, "angle": 6.3 },
					{ "time": 0.8667, "angle": 0 },
					{ "time": 1.6667, "angle": -177.55 },
					{ "time": 2.4667, "angle": 6 },
					{ "time": 2.5, "angle": 0 }
				]
			},
			"background_a4": {
				"rotate": [
					{ "time": 0, "angle": 0 },
					{ "time": 0.2667, "angle": -177.55 },
					{ "time": 0.8333, "angle": 6.3 },
					{ "time": 0.8667, "angle": 0 },
					{ "time": 1.6667, "angle": -177.55 },
					{ "time": 2.4667, "angle": 6 },
					{ "time": 2.5, "angle": 0 }
				]
			},
			"background_a5": {
				"rotate": [
					{ "time": 0, "angle": 0 },
					{ "time": 0.2667, "angle": -177.55 },
					{ "time": 0.8333, "angle": 6.3 },
					{ "time": 0.8667, "angle": 0 },
					{ "time": 1.6667, "angle": -177.55 },
					{ "time": 2.4667, "angle": 6 },
					{ "time": 2.5, "angle": 0 }
				]
			},
			"background_a6": {
				"rotate": [
					{ "time": 0, "angle": 0 },
					{ "time": 0.2667, "angle": -177.55 },
					{ "time": 0.8333, "angle": 6.3 },
					{ "time": 0.8667, "angle": 0 },
					{ "time": 1.6667, "angle": -177.55 },
					{ "time": 2.4667, "angle": 6 },
					{ "time": 2.5, "angle": 0 }
				]
			},
			"background": {
				"rotate": [
					{ "time": 0, "angle": 0 },
					{ "time": 1.2667, "angle": -179.87 },
					{ "time": 2.4667, "angle": 0.3 },
					{ "time": 2.5, "angle": 0 }
				]
			}
		}
	}
}
}