{
"skeleton": { "hash": "X5W744Vtfxl95OjqgBTZ/2ZGrGs", "spine": "3.6.53", "width": 370.5, "height": 344.5, "images": "./dragon_effect/" },
"bones": [
	{ "name": "root" },
	{ "name": "a", "parent": "root", "scaleX": 6.5, "scaleY": 6.5 },
	{ "name": "area", "parent": "root" },
	{ "name": "b", "parent": "root", "scaleX": 6.5, "scaleY": 6.5 },
	{ "name": "b2", "parent": "root", "rotation": -90, "x": 4.09, "y": -3.18, "scaleX": 6.5, "scaleY": 6.5 }
],
"slots": [
	{ "name": "a_a", "bone": "a", "attachment": "a_a" },
	{ "name": "b_a", "bone": "b", "attachment": "b_a", "blend": "multiply" },
	{ "name": "b_a2", "bone": "b2", "attachment": "b_a", "blend": "additive" },
	{ "name": "area", "bone": "area", "attachment": "area" }
],
"skins": {
	"default": {
		"a_a": {
			"a_a": { "x": 1.52, "y": 1.2, "width": 57, "height": 52 },
			"a_b": { "x": 3.02, "y": 1.2, "width": 89, "height": 87 },
			"a_c": { "x": -0.48, "y": -0.3, "width": 110, "height": 102 },
			"a_d": { "x": -0.48, "y": 0.2, "width": 119, "height": 113 },
			"a_e": { "x": 0.02, "y": 1.7, "width": 130, "height": 123 },
			"a_f": { "x": 4.52, "y": -1.3, "width": 144, "height": 144 },
			"a_g": { "x": 4.52, "y": -1.3, "width": 146, "height": 149 },
			"a_h": { "x": 4.02, "y": 0.2, "width": 149, "height": 154 },
			"a_i": { "x": 4.52, "y": -0.8, "width": 152, "height": 152 },
			"a_j": { "x": 4.52, "y": -2.3, "width": 153, "height": 156 },
			"a_k": { "x": 6.52, "y": -1.8, "width": 152, "height": 153 },
			"a_l": { "x": 7.02, "y": 3.7, "width": 144, "height": 133 },
			"a_m": { "x": 6.52, "y": 3.2, "width": 144, "height": 131 },
			"a_n": { "x": -9.48, "y": 3.2, "width": 110, "height": 129 }
		},
		"area": {
			"area": {
				"type": "boundingbox",
				"vertexCount": 4,
				"vertices": [ -20.2, 18.06, -18.83, -18.72, 18.85, -18.72, 18.85, 18.06 ]
			}
		},
		"b_a": {
			"b_a": { "x": -0.98, "y": -3.3, "width": 30, "height": 45 },
			"b_b": { "x": -0.98, "y": -3.8, "width": 62, "height": 56 },
			"b_c": { "x": -0.98, "y": -3.8, "width": 78, "height": 64 },
			"b_d": { "x": -1.48, "y": -3.3, "width": 83, "height": 63 },
			"b_e": { "x": -1.48, "y": -2.3, "width": 85, "height": 77 },
			"b_f": { "x": -1.98, "y": -1.3, "width": 90, "height": 87 },
			"b_g": { "x": -1.98, "y": -0.8, "width": 94, "height": 92 },
			"b_h": { "x": -2.48, "y": -0.8, "width": 97, "height": 96 },
			"b_i": { "x": -3.48, "y": -0.3, "width": 99, "height": 101 },
			"b_j": { "x": -2.98, "y": -0.3, "width": 100, "height": 101 },
			"b_k": { "x": -3.48, "y": -0.3, "width": 99, "height": 103 },
			"b_l": { "x": -3.48, "y": -0.3, "width": 101, "height": 105 },
			"b_m": { "x": -3.48, "y": 0.2, "width": 101, "height": 106 },
			"b_n": { "x": -3.98, "y": 0.2, "width": 102, "height": 108 },
			"b_o": { "x": -4.48, "y": 0.2, "width": 101, "height": 108 },
			"b_p": { "x": -4.48, "y": 0.2, "width": 101, "height": 110 },
			"b_q": { "x": -4.48, "y": 0.2, "width": 101, "height": 110 },
			"b_r": { "x": -4.98, "y": 0.2, "width": 100, "height": 110 },
			"b_s": { "x": -4.48, "y": 0.2, "width": 95, "height": 110 },
			"b_t": { "x": -4.98, "y": 0.2, "width": 92, "height": 110 },
			"b_u": { "x": -4.48, "y": 0.2, "width": 91, "height": 110 }
		},
		"b_a2": {
			"b_a": { "x": -0.98, "y": -3.3, "width": 30, "height": 45 },
			"b_b": { "x": -0.98, "y": -3.8, "width": 62, "height": 56 },
			"b_c": { "x": -0.98, "y": -3.8, "width": 78, "height": 64 },
			"b_d": { "x": -1.48, "y": -3.3, "width": 83, "height": 63 },
			"b_e": { "x": -1.48, "y": -2.3, "width": 85, "height": 77 },
			"b_f": { "x": -1.98, "y": -1.3, "width": 90, "height": 87 },
			"b_g": { "x": -1.98, "y": -0.8, "width": 94, "height": 92 },
			"b_h": { "x": -2.48, "y": -0.8, "width": 97, "height": 96 },
			"b_i": { "x": -3.48, "y": -0.3, "width": 99, "height": 101 },
			"b_j": { "x": -2.98, "y": -0.3, "width": 100, "height": 101 },
			"b_k": { "x": -3.48, "y": -0.3, "width": 99, "height": 103 },
			"b_l": { "x": -3.48, "y": -0.3, "width": 101, "height": 105 },
			"b_m": { "x": -3.48, "y": 0.2, "width": 101, "height": 106 },
			"b_n": { "x": -3.98, "y": 0.2, "width": 102, "height": 108 },
			"b_o": { "x": -4.48, "y": 0.2, "width": 101, "height": 108 },
			"b_p": { "x": -4.48, "y": 0.2, "width": 101, "height": 110 },
			"b_q": { "x": -4.48, "y": 0.2, "width": 101, "height": 110 },
			"b_r": { "x": -4.98, "y": 0.2, "width": 100, "height": 110 },
			"b_s": { "x": -4.48, "y": 0.2, "width": 95, "height": 110 },
			"b_t": { "x": -4.98, "y": 0.2, "width": 92, "height": 110 },
			"b_u": { "x": -4.48, "y": 0.2, "width": 91, "height": 110 }
		}
	}
},
"events": {
	"sound_dragon_effect": {}
},
"animations": {
	"fire": {
		"slots": {
			"a_a": {
				"color": [
					{ "time": 0, "color": "ff2a2aff" },
					{ "time": 0.2667, "color": "ff2929ff" },
					{ "time": 0.5667, "color": "ff282800" }
				],
				"attachment": [
					{ "time": 0, "name": "a_a" },
					{ "time": 0.0333, "name": "a_b" },
					{ "time": 0.0667, "name": "a_c" },
					{ "time": 0.1, "name": "a_d" },
					{ "time": 0.1333, "name": "a_e" },
					{ "time": 0.1667, "name": "a_f" },
					{ "time": 0.2, "name": "a_g" },
					{ "time": 0.2333, "name": "a_h" },
					{ "time": 0.2667, "name": "a_i" },
					{ "time": 0.3, "name": "a_j" },
					{ "time": 0.3333, "name": "a_k" },
					{ "time": 0.3667, "name": "a_l" },
					{ "time": 0.4, "name": "a_m" },
					{ "time": 0.4333, "name": "a_n" },
					{ "time": 0.4667, "name": "a_n" }
				]
			},
			"b_a": {
				"color": [
					{ "time": 0, "color": "ff5b5b00" },
					{ "time": 0.0667, "color": "ff5b5bff", "curve": "stepped" },
					{ "time": 0.5, "color": "ff5b5bff" },
					{ "time": 0.7, "color": "ff5b5b00" }
				],
				"attachment": [
					{ "time": 0, "name": "b_a" },
					{ "time": 0.0333, "name": "b_b" },
					{ "time": 0.0667, "name": "b_c" },
					{ "time": 0.1, "name": "b_d" },
					{ "time": 0.1333, "name": "b_e" },
					{ "time": 0.1667, "name": "b_f" },
					{ "time": 0.2, "name": "b_g" },
					{ "time": 0.2333, "name": "b_h" },
					{ "time": 0.2667, "name": "b_i" },
					{ "time": 0.3, "name": "b_j" },
					{ "time": 0.3333, "name": "b_k" },
					{ "time": 0.3667, "name": "b_l" },
					{ "time": 0.4, "name": "b_m" },
					{ "time": 0.4333, "name": "b_n" },
					{ "time": 0.4667, "name": "b_o" },
					{ "time": 0.5, "name": "b_p" },
					{ "time": 0.5333, "name": "b_q" },
					{ "time": 0.5667, "name": "b_r" },
					{ "time": 0.6, "name": "b_s" },
					{ "time": 0.6333, "name": "b_t" },
					{ "time": 0.6667, "name": "b_u" },
					{ "time": 0.7, "name": "b_u" }
				]
			},
			"b_a2": {
				"color": [
					{ "time": 0, "color": "ff5b5b00" },
					{ "time": 0.0667, "color": "ff5b5bff", "curve": "stepped" },
					{ "time": 0.5, "color": "ff5b5bff" },
					{ "time": 0.7, "color": "ff5b5b00" }
				],
				"attachment": [
					{ "time": 0, "name": "b_a" },
					{ "time": 0.0333, "name": "b_b" },
					{ "time": 0.0667, "name": "b_c" },
					{ "time": 0.1, "name": "b_d" },
					{ "time": 0.1333, "name": "b_e" },
					{ "time": 0.1667, "name": "b_f" },
					{ "time": 0.2, "name": "b_g" },
					{ "time": 0.2333, "name": "b_h" },
					{ "time": 0.2667, "name": "b_i" },
					{ "time": 0.3, "name": "b_j" },
					{ "time": 0.3333, "name": "b_k" },
					{ "time": 0.3667, "name": "b_l" },
					{ "time": 0.4, "name": "b_m" },
					{ "time": 0.4333, "name": "b_n" },
					{ "time": 0.4667, "name": "b_o" },
					{ "time": 0.5, "name": "b_p" },
					{ "time": 0.5333, "name": "b_q" },
					{ "time": 0.5667, "name": "b_r" },
					{ "time": 0.6, "name": "b_s" },
					{ "time": 0.6333, "name": "b_t" },
					{ "time": 0.6667, "name": "b_u" },
					{ "time": 0.7, "name": "b_u" }
				]
			}
		},
		"bones": {
			"b2": {
				"rotate": [
					{ "time": 0, "angle": 46.34 }
				]
			}
		},
		"events": [
			{ "time": 0, "name": "sound_dragon_effect" }
		]
	},
	"ice": {
		"slots": {
			"a_a": {
				"color": [
					{ "time": 0, "color": "27a4ffff" },
					{ "time": 0.2667, "color": "26a0ffff" },
					{ "time": 0.5667, "color": "2486ff00" }
				],
				"attachment": [
					{ "time": 0, "name": "a_a" },
					{ "time": 0.0333, "name": "a_b" },
					{ "time": 0.0667, "name": "a_c" },
					{ "time": 0.1, "name": "a_d" },
					{ "time": 0.1333, "name": "a_e" },
					{ "time": 0.1667, "name": "a_f" },
					{ "time": 0.2, "name": "a_g" },
					{ "time": 0.2333, "name": "a_h" },
					{ "time": 0.2667, "name": "a_i" },
					{ "time": 0.3, "name": "a_j" },
					{ "time": 0.3333, "name": "a_k" },
					{ "time": 0.3667, "name": "a_l" },
					{ "time": 0.4, "name": "a_m" },
					{ "time": 0.4333, "name": "a_n" },
					{ "time": 0.4667, "name": "a_n" }
				]
			},
			"b_a": {
				"color": [
					{ "time": 0, "color": "5bc5ff00" },
					{ "time": 0.0667, "color": "5bacffff" },
					{ "time": 0.5, "color": "5bb4ffff" },
					{ "time": 0.7, "color": "5bb1ff00" }
				],
				"attachment": [
					{ "time": 0, "name": "b_a" },
					{ "time": 0.0333, "name": "b_b" },
					{ "time": 0.0667, "name": "b_c" },
					{ "time": 0.1, "name": "b_d" },
					{ "time": 0.1333, "name": "b_e" },
					{ "time": 0.1667, "name": "b_f" },
					{ "time": 0.2, "name": "b_g" },
					{ "time": 0.2333, "name": "b_h" },
					{ "time": 0.2667, "name": "b_i" },
					{ "time": 0.3, "name": "b_j" },
					{ "time": 0.3333, "name": "b_k" },
					{ "time": 0.3667, "name": "b_l" },
					{ "time": 0.4, "name": "b_m" },
					{ "time": 0.4333, "name": "b_n" },
					{ "time": 0.4667, "name": "b_o" },
					{ "time": 0.5, "name": "b_p" },
					{ "time": 0.5333, "name": "b_q" },
					{ "time": 0.5667, "name": "b_r" },
					{ "time": 0.6, "name": "b_s" },
					{ "time": 0.6333, "name": "b_t" },
					{ "time": 0.6667, "name": "b_u" },
					{ "time": 0.7, "name": "b_u" }
				]
			},
			"b_a2": {
				"color": [
					{ "time": 0, "color": "5ba1ff00" },
					{ "time": 0.0667, "color": "5b9bffff" },
					{ "time": 0.5, "color": "5bacffff" },
					{ "time": 0.7, "color": "5bbcff00" }
				],
				"attachment": [
					{ "time": 0, "name": "b_a" },
					{ "time": 0.0333, "name": "b_b" },
					{ "time": 0.0667, "name": "b_c" },
					{ "time": 0.1, "name": "b_d" },
					{ "time": 0.1333, "name": "b_e" },
					{ "time": 0.1667, "name": "b_f" },
					{ "time": 0.2, "name": "b_g" },
					{ "time": 0.2333, "name": "b_h" },
					{ "time": 0.2667, "name": "b_i" },
					{ "time": 0.3, "name": "b_j" },
					{ "time": 0.3333, "name": "b_k" },
					{ "time": 0.3667, "name": "b_l" },
					{ "time": 0.4, "name": "b_m" },
					{ "time": 0.4333, "name": "b_n" },
					{ "time": 0.4667, "name": "b_o" },
					{ "time": 0.5, "name": "b_p" },
					{ "time": 0.5333, "name": "b_q" },
					{ "time": 0.5667, "name": "b_r" },
					{ "time": 0.6, "name": "b_s" },
					{ "time": 0.6333, "name": "b_t" },
					{ "time": 0.6667, "name": "b_u" },
					{ "time": 0.7, "name": "b_u" }
				]
			}
		},
		"bones": {
			"b2": {
				"rotate": [
					{ "time": 0, "angle": 46.34 }
				]
			}
		},
		"events": [
			{ "time": 0, "name": "sound_dragon_effect" }
		]
	},
	"idle": {
		"slots": {
			"a_a": {
				"color": [
					{ "time": 0, "color": "ffffff00" }
				]
			},
			"b_a": {
				"color": [
					{ "time": 0, "color": "ffffff00" }
				]
			},
			"b_a2": {
				"color": [
					{ "time": 0, "color": "ffffff00" }
				]
			}
		}
	},
	"lightning": {
		"slots": {
			"a_a": {
				"color": [
					{ "time": 0, "color": "fffb28ff" },
					{ "time": 0.2667, "color": "fff027ff" },
					{ "time": 0.5667, "color": "ff8a2500" }
				],
				"attachment": [
					{ "time": 0, "name": "a_a" },
					{ "time": 0.0333, "name": "a_b" },
					{ "time": 0.0667, "name": "a_c" },
					{ "time": 0.1, "name": "a_d" },
					{ "time": 0.1333, "name": "a_e" },
					{ "time": 0.1667, "name": "a_f" },
					{ "time": 0.2, "name": "a_g" },
					{ "time": 0.2333, "name": "a_h" },
					{ "time": 0.2667, "name": "a_i" },
					{ "time": 0.3, "name": "a_j" },
					{ "time": 0.3333, "name": "a_k" },
					{ "time": 0.3667, "name": "a_l" },
					{ "time": 0.4, "name": "a_m" },
					{ "time": 0.4333, "name": "a_n" },
					{ "time": 0.4667, "name": "a_n" }
				]
			},
			"b_a": {
				"color": [
					{ "time": 0, "color": "ffee5b00" },
					{ "time": 0.0667, "color": "ffe35bff" },
					{ "time": 0.5, "color": "ff9b5bff" },
					{ "time": 0.7, "color": "ffe05b00" }
				],
				"attachment": [
					{ "time": 0, "name": "b_a" },
					{ "time": 0.0333, "name": "b_b" },
					{ "time": 0.0667, "name": "b_c" },
					{ "time": 0.1, "name": "b_d" },
					{ "time": 0.1333, "name": "b_e" },
					{ "time": 0.1667, "name": "b_f" },
					{ "time": 0.2, "name": "b_g" },
					{ "time": 0.2333, "name": "b_h" },
					{ "time": 0.2667, "name": "b_i" },
					{ "time": 0.3, "name": "b_j" },
					{ "time": 0.3333, "name": "b_k" },
					{ "time": 0.3667, "name": "b_l" },
					{ "time": 0.4, "name": "b_m" },
					{ "time": 0.4333, "name": "b_n" },
					{ "time": 0.4667, "name": "b_o" },
					{ "time": 0.5, "name": "b_p" },
					{ "time": 0.5333, "name": "b_q" },
					{ "time": 0.5667, "name": "b_r" },
					{ "time": 0.6, "name": "b_s" },
					{ "time": 0.6333, "name": "b_t" },
					{ "time": 0.6667, "name": "b_u" },
					{ "time": 0.7, "name": "b_u" }
				]
			},
			"b_a2": {
				"color": [
					{ "time": 0, "color": "ffdb5b00" },
					{ "time": 0.0667, "color": "ffc75bff" },
					{ "time": 0.5, "color": "ffa95bff" },
					{ "time": 0.7, "color": "ffe35b00" }
				],
				"attachment": [
					{ "time": 0, "name": "b_a" },
					{ "time": 0.0333, "name": "b_b" },
					{ "time": 0.0667, "name": "b_c" },
					{ "time": 0.1, "name": "b_d" },
					{ "time": 0.1333, "name": "b_e" },
					{ "time": 0.1667, "name": "b_f" },
					{ "time": 0.2, "name": "b_g" },
					{ "time": 0.2333, "name": "b_h" },
					{ "time": 0.2667, "name": "b_i" },
					{ "time": 0.3, "name": "b_j" },
					{ "time": 0.3333, "name": "b_k" },
					{ "time": 0.3667, "name": "b_l" },
					{ "time": 0.4, "name": "b_m" },
					{ "time": 0.4333, "name": "b_n" },
					{ "time": 0.4667, "name": "b_o" },
					{ "time": 0.5, "name": "b_p" },
					{ "time": 0.5333, "name": "b_q" },
					{ "time": 0.5667, "name": "b_r" },
					{ "time": 0.6, "name": "b_s" },
					{ "time": 0.6333, "name": "b_t" },
					{ "time": 0.6667, "name": "b_u" },
					{ "time": 0.7, "name": "b_u" }
				]
			}
		},
		"bones": {
			"b2": {
				"rotate": [
					{ "time": 0, "angle": 46.34 }
				]
			}
		},
		"events": [
			{ "time": 0, "name": "sound_dragon_effect" }
		]
	},
	"normal": {
		"slots": {
			"a_a": {
				"color": [
					{ "time": 0, "color": "ffccccff", "curve": "stepped" },
					{ "time": 0.2667, "color": "ffccccff" },
					{ "time": 0.5667, "color": "ffcccc00" }
				],
				"attachment": [
					{ "time": 0, "name": "a_a" },
					{ "time": 0.0333, "name": "a_b" },
					{ "time": 0.0667, "name": "a_c" },
					{ "time": 0.1, "name": "a_d" },
					{ "time": 0.1333, "name": "a_e" },
					{ "time": 0.1667, "name": "a_f" },
					{ "time": 0.2, "name": "a_g" },
					{ "time": 0.2333, "name": "a_h" },
					{ "time": 0.2667, "name": "a_i" },
					{ "time": 0.3, "name": "a_j" },
					{ "time": 0.3333, "name": "a_k" },
					{ "time": 0.3667, "name": "a_l" },
					{ "time": 0.4, "name": "a_m" },
					{ "time": 0.4333, "name": "a_n" },
					{ "time": 0.4667, "name": "a_n" }
				]
			},
			"b_a": {
				"color": [
					{ "time": 0, "color": "ff8a8a00" },
					{ "time": 0.0667, "color": "ff9292ff" },
					{ "time": 0.5, "color": "ffb3b3ff" },
					{ "time": 0.7, "color": "ffbcbc00" }
				],
				"attachment": [
					{ "time": 0, "name": "b_a" },
					{ "time": 0.0333, "name": "b_b" },
					{ "time": 0.0667, "name": "b_c" },
					{ "time": 0.1, "name": "b_d" },
					{ "time": 0.1333, "name": "b_e" },
					{ "time": 0.1667, "name": "b_f" },
					{ "time": 0.2, "name": "b_g" },
					{ "time": 0.2333, "name": "b_h" },
					{ "time": 0.2667, "name": "b_i" },
					{ "time": 0.3, "name": "b_j" },
					{ "time": 0.3333, "name": "b_k" },
					{ "time": 0.3667, "name": "b_l" },
					{ "time": 0.4, "name": "b_m" },
					{ "time": 0.4333, "name": "b_n" },
					{ "time": 0.4667, "name": "b_o" },
					{ "time": 0.5, "name": "b_p" },
					{ "time": 0.5333, "name": "b_q" },
					{ "time": 0.5667, "name": "b_r" },
					{ "time": 0.6, "name": "b_s" },
					{ "time": 0.6333, "name": "b_t" },
					{ "time": 0.6667, "name": "b_u" },
					{ "time": 0.7, "name": "b_u" }
				]
			},
			"b_a2": {
				"color": [
					{ "time": 0, "color": "ffa4a400" },
					{ "time": 0.0667, "color": "ffb2b2ff" },
					{ "time": 0.5, "color": "ffb6b6ff" },
					{ "time": 0.7, "color": "ffb7b700" }
				],
				"attachment": [
					{ "time": 0, "name": "b_a" },
					{ "time": 0.0333, "name": "b_b" },
					{ "time": 0.0667, "name": "b_c" },
					{ "time": 0.1, "name": "b_d" },
					{ "time": 0.1333, "name": "b_e" },
					{ "time": 0.1667, "name": "b_f" },
					{ "time": 0.2, "name": "b_g" },
					{ "time": 0.2333, "name": "b_h" },
					{ "time": 0.2667, "name": "b_i" },
					{ "time": 0.3, "name": "b_j" },
					{ "time": 0.3333, "name": "b_k" },
					{ "time": 0.3667, "name": "b_l" },
					{ "time": 0.4, "name": "b_m" },
					{ "time": 0.4333, "name": "b_n" },
					{ "time": 0.4667, "name": "b_o" },
					{ "time": 0.5, "name": "b_p" },
					{ "time": 0.5333, "name": "b_q" },
					{ "time": 0.5667, "name": "b_r" },
					{ "time": 0.6, "name": "b_s" },
					{ "time": 0.6333, "name": "b_t" },
					{ "time": 0.6667, "name": "b_u" },
					{ "time": 0.7, "name": "b_u" }
				]
			}
		},
		"bones": {
			"b2": {
				"rotate": [
					{ "time": 0, "angle": 46.34 }
				]
			}
		}
	},
	"wind": {
		"slots": {
			"a_a": {
				"color": [
					{ "time": 0, "color": "29ffb7ff" },
					{ "time": 0.2667, "color": "28ffa1ff" },
					{ "time": 0.5667, "color": "27ffc100" }
				],
				"attachment": [
					{ "time": 0, "name": "a_a" },
					{ "time": 0.0333, "name": "a_b" },
					{ "time": 0.0667, "name": "a_c" },
					{ "time": 0.1, "name": "a_d" },
					{ "time": 0.1333, "name": "a_e" },
					{ "time": 0.1667, "name": "a_f" },
					{ "time": 0.2, "name": "a_g" },
					{ "time": 0.2333, "name": "a_h" },
					{ "time": 0.2667, "name": "a_i" },
					{ "time": 0.3, "name": "a_j" },
					{ "time": 0.3333, "name": "a_k" },
					{ "time": 0.3667, "name": "a_l" },
					{ "time": 0.4, "name": "a_m" },
					{ "time": 0.4333, "name": "a_n" },
					{ "time": 0.4667, "name": "a_n" }
				]
			},
			"b_a": {
				"color": [
					{ "time": 0, "color": "5bffbf00" },
					{ "time": 0.0667, "color": "5bffd2ff" },
					{ "time": 0.5, "color": "5bffb7ff" },
					{ "time": 0.7, "color": "5bffbc00" }
				],
				"attachment": [
					{ "time": 0, "name": "b_a" },
					{ "time": 0.0333, "name": "b_b" },
					{ "time": 0.0667, "name": "b_c" },
					{ "time": 0.1, "name": "b_d" },
					{ "time": 0.1333, "name": "b_e" },
					{ "time": 0.1667, "name": "b_f" },
					{ "time": 0.2, "name": "b_g" },
					{ "time": 0.2333, "name": "b_h" },
					{ "time": 0.2667, "name": "b_i" },
					{ "time": 0.3, "name": "b_j" },
					{ "time": 0.3333, "name": "b_k" },
					{ "time": 0.3667, "name": "b_l" },
					{ "time": 0.4, "name": "b_m" },
					{ "time": 0.4333, "name": "b_n" },
					{ "time": 0.4667, "name": "b_o" },
					{ "time": 0.5, "name": "b_p" },
					{ "time": 0.5333, "name": "b_q" },
					{ "time": 0.5667, "name": "b_r" },
					{ "time": 0.6, "name": "b_s" },
					{ "time": 0.6333, "name": "b_t" },
					{ "time": 0.6667, "name": "b_u" },
					{ "time": 0.7, "name": "b_u" }
				]
			},
			"b_a2": {
				"color": [
					{ "time": 0, "color": "5bffe600" },
					{ "time": 0.0667, "color": "5bfff6ff" },
					{ "time": 0.5, "color": "5bffacff" },
					{ "time": 0.7, "color": "5bffb100" }
				],
				"attachment": [
					{ "time": 0, "name": "b_a" },
					{ "time": 0.0333, "name": "b_b" },
					{ "time": 0.0667, "name": "b_c" },
					{ "time": 0.1, "name": "b_d" },
					{ "time": 0.1333, "name": "b_e" },
					{ "time": 0.1667, "name": "b_f" },
					{ "time": 0.2, "name": "b_g" },
					{ "time": 0.2333, "name": "b_h" },
					{ "time": 0.2667, "name": "b_i" },
					{ "time": 0.3, "name": "b_j" },
					{ "time": 0.3333, "name": "b_k" },
					{ "time": 0.3667, "name": "b_l" },
					{ "time": 0.4, "name": "b_m" },
					{ "time": 0.4333, "name": "b_n" },
					{ "time": 0.4667, "name": "b_o" },
					{ "time": 0.5, "name": "b_p" },
					{ "time": 0.5333, "name": "b_q" },
					{ "time": 0.5667, "name": "b_r" },
					{ "time": 0.6, "name": "b_s" },
					{ "time": 0.6333, "name": "b_t" },
					{ "time": 0.6667, "name": "b_u" },
					{ "time": 0.7, "name": "b_u" }
				]
			}
		},
		"bones": {
			"b2": {
				"rotate": [
					{ "time": 0, "angle": 46.34 }
				]
			}
		},
		"events": [
			{ "time": 0, "name": "sound_dragon_effect" }
		]
	}
}
}