{"skeleton":{"images":""},
"bones":[{"name":"root"}],
"slots":[
	{"name":"nomar_pont_0","bone":"root","attachment":"nomar_pont_0"},
	{"name":"nomar_pont_1","bone":"root","attachment":"nomar_pont_1"},
	{"name":"nomar_pont_2","bone":"root","attachment":"nomar_pont_2"},
	{"name":"nomar_pont_3","bone":"root","attachment":"nomar_pont_3"},
	{"name":"nomar_pont_4","bone":"root","attachment":"nomar_pont_4"},
	{"name":"nomar_pont_5","bone":"root","attachment":"nomar_pont_5"},
	{"name":"nomar_pont_6","bone":"root","attachment":"nomar_pont_6"},
	{"name":"nomar_pont_7","bone":"root","attachment":"nomar_pont_7"},
	{"name":"nomar_pont_8","bone":"root","attachment":"nomar_pont_8"},
	{"name":"nomar_pont_9","bone":"root","attachment":"nomar_pont_9"}
],
"skins":{
	"default":{
		"nomar_pont_9":{"nomar_pont_9":{"x":26,"y":31.5,"width":52,"height":63}},
		"nomar_pont_8":{"nomar_pont_8":{"x":26,"y":31.5,"width":52,"height":63}},
		"nomar_pont_7":{"nomar_pont_7":{"x":26,"y":31.5,"width":52,"height":63}},
		"nomar_pont_6":{"nomar_pont_6":{"x":26,"y":31.5,"width":52,"height":63}},
		"nomar_pont_5":{"nomar_pont_5":{"x":26,"y":31.5,"width":52,"height":63}},
		"nomar_pont_4":{"nomar_pont_4":{"x":26,"y":31.5,"width":52,"height":63}},
		"nomar_pont_3":{"nomar_pont_3":{"x":26,"y":31.5,"width":52,"height":63}},
		"nomar_pont_2":{"nomar_pont_2":{"x":26,"y":31.5,"width":52,"height":63}},
		"nomar_pont_1":{"nomar_pont_1":{"x":26,"y":31.5,"width":52,"height":63}},
		"nomar_pont_0":{"nomar_pont_0":{"x":26,"y":31.5,"width":52,"height":63}}
	}
},
"animations":{"animation":{}}
}