{"skeleton":{"images":""},
"bones":[{"name":"root"}],
"slots":[
	{"name":"damage_pont_0","bone":"root","attachment":"damage_pont_0"},
	{"name":"damage_pont_1","bone":"root","attachment":"damage_pont_1"},
	{"name":"damage_pont_2","bone":"root","attachment":"damage_pont_2"},
	{"name":"damage_pont_3","bone":"root","attachment":"damage_pont_3"},
	{"name":"damage_pont_4","bone":"root","attachment":"damage_pont_4"},
	{"name":"damage_pont_5","bone":"root","attachment":"damage_pont_5"},
	{"name":"damage_pont_6","bone":"root","attachment":"damage_pont_6"},
	{"name":"damage_pont_7","bone":"root","attachment":"damage_pont_7"},
	{"name":"damage_pont_8","bone":"root","attachment":"damage_pont_8"},
	{"name":"damage_pont_9","bone":"root","attachment":"damage_pont_9"}
],
"skins":{
	"default":{
		"damage_pont_9":{"damage_pont_9":{"x":16,"y":22,"width":32,"height":44}},
		"damage_pont_8":{"damage_pont_8":{"x":16,"y":22,"width":32,"height":44}},
		"damage_pont_7":{"damage_pont_7":{"x":16,"y":22,"width":32,"height":44}},
		"damage_pont_6":{"damage_pont_6":{"x":16,"y":22,"width":32,"height":44}},
		"damage_pont_5":{"damage_pont_5":{"x":16,"y":22,"width":32,"height":44}},
		"damage_pont_4":{"damage_pont_4":{"x":16,"y":22,"width":32,"height":44}},
		"damage_pont_3":{"damage_pont_3":{"x":16,"y":22,"width":32,"height":44}},
		"damage_pont_2":{"damage_pont_2":{"x":16,"y":22,"width":32,"height":44}},
		"damage_pont_1":{"damage_pont_1":{"x":16,"y":22,"width":32,"height":44}},
		"damage_pont_0":{"damage_pont_0":{"x":16,"y":22,"width":32,"height":44}}
	}
},
"animations":{"animation":{}}
}